…
library(magrittr)
```
```{r}
table1
#> # A tibble: 6 × 4
#>   country      year  cases population
#>   <chr>       <int>  <int>      <int>
#> 1 Afghanistan  1999    745   19987071
#> 2 Afghanistan  2000   2666   20595360
#> 3 Brazil       1999  37737  172006362
#> 4 Brazil       2000  80488  174504898
#> 5 China        1999 212258 1272915272
#> 6 China        2000 213766 1280428583
table2
#> # A tibble: 12 × 4
#>   country      year type           count
#>   <chr>       <int> <chr>          <int>
#> 1 Afghanistan  1999 cases            745
#> 2 Afghanistan  1999 population  19987071
#> 3 Afghanistan  2000 cases           2666
#> 4 Afghanistan  2000 population  20595360
#> 5 Brazil       1999 cases          37737
#> 6 Brazil       1999 population 172006362
#> # ... with 6 more rows
…
```{r}
#Lengthening Datasets
billboard
#> # A tibble: 317 × 79
#>   artist       track               date.entered   wk1   wk2   wk3   wk4   wk5
#>   <chr>        <chr>               <date>       <dbl> <dbl> <dbl> <dbl> <dbl>
#> 1 2 Pac        Baby Don't Cry (Ke... 2000-02-26      87    82    72    77    87
#> 2 2Ge+her      The Hardest Part O... 2000-09-02      91    87    92    NA    NA
#> 3 3 Doors Down Kryptonite          2000-04-08      81    70    68    67    66
#> 4 3 Doors Down Loser               2000-10-21      76    76    72    69    67
#> 5 504 Boyz     Wobble Wobble       2000-04-15      57    34    25    17    17
#> 6 98^0         Give Me Just One N... 2000-08-19      51    39    34    26    26
#> # ℹ 311 more rows
#> # ℹ 71 more variables: wk6 <dbl>, wk7 <dbl>, wk8 <dbl>, wk9 <dbl>, ...
…
billboard |> 
  pivot_longer(
    cols = starts_with("wk"), 
    names_to = "week", 
    values_to = "rank",
    values_drop_na = TRUE
  )
#> # A tibble: 5,307 × 5
#>   artist track                   date.entered week   rank
#>   <chr>  <chr>                   <date>       <chr> <dbl>
#> 1 2 Pac  Baby Don't Cry (Keep... 2000-02-26   wk1      87
#> 2 2 Pac  Baby Don't Cry (Keep... 2000-02-26   wk2      82
#> 3 2 Pac  Baby Don't Cry (Keep... 2000-02-26   wk3      72
#> 4 2 Pac  Baby Don't Cry (Keep... 2000-02-26   wk4      77
#> 5 2 Pac  Baby Don't Cry (Keep... 2000-02-26   wk5      87
#> 6 2 Pac  Baby Don't Cry (Keep... 2000-02-26   wk6      94
#> # ℹ 5,301 more rows
```
…
```{r}
#Widening Datasets
cms_patient_experience
#> # A tibble: 500 × 5
#>   org_pac_id org_nm                     measure_cd   measure_title   prf_rate
#>   <chr>      <chr>                      <chr>        <chr>              <dbl>
#> 1 0446157747 USC CARE MEDICAL GROUP INC CAHPS_GRP_1  CAHPS for MIPS...       63
#> 2 0446157747 USC CARE MEDICAL GROUP INC CAHPS_GRP_2  CAHPS for MIPS...       87
#> 3 0446157747 USC CARE MEDICAL GROUP INC CAHPS_GRP_3  CAHPS for MIPS...       86
#> 4 0446157747 USC CARE MEDICAL GROUP INC CAHPS_GRP_5  CAHPS for MIPS...       57
#> 5 0446157747 USC CARE MEDICAL GROUP INC CAHPS_GRP_8  CAHPS for MIPS...       85
#> 6 0446157747 USC CARE MEDICAL GROUP INC CAHPS_GRP_12 CAHPS for MIPS...       24
#> # ℹ 494 more rows
…
#> # A tibble: 6 × 2
#>   measure_cd   measure_title                                                 
#>   <chr>        <chr>                                                         
#> 1 CAHPS_GRP_1  CAHPS for MIPS SSM: Getting Timely Care, Appointments, and In...
#> 2 CAHPS_GRP_2  CAHPS for MIPS SSM: How Well Providers Communicate            
#> 3 CAHPS_GRP_3  CAHPS for MIPS SSM: Patient's Rating of Provider              
#> 4 CAHPS_GRP_5  CAHPS for MIPS SSM: Health Promotion and Education            
#> 5 CAHPS_GRP_8  CAHPS for MIPS SSM: Courteous and Helpful Office Staff        
#> 6 CAHPS_GRP_12 CAHPS for MIPS SSM: Stewardship of Patient Resources
cms_patient_experience |> 
  pivot_wider(
    names_from = measure_cd,
    values_from = prf_rate
  )
#> # A tibble: 500 × 9
#>   org_pac_id org_nm                   measure_title   CAHPS_GRP_1 CAHPS_GRP_2
#>   <chr>      <chr>                    <chr>                 <dbl>       <dbl>
#> 1 0446157747 USC CARE MEDICAL GROUP ... CAHPS for MIPS...          63          NA
#> 2 0446157747 USC CARE MEDICAL GROUP ... CAHPS for MIPS...          NA          87
#> 3 0446157747 USC CARE MEDICAL GROUP ... CAHPS for MIPS...          NA          NA
#> 4 0446157747 USC CARE MEDICAL GROUP ... CAHPS for MIPS...          NA          NA
#> 5 0446157747 USC CARE MEDICAL GROUP ... CAHPS for MIPS...          NA          NA
#> 6 0446157747 USC CARE MEDICAL GROUP ... CAHPS for MIPS...          NA          NA
#> # ℹ 494 more rows
#> # ℹ 4 more variables: CAHPS_GRP_3 <dbl>, CAHPS_GRP_5 <dbl>, ...
cms_patient_experience |> 
  pivot_wider(
    id_cols = starts_with("org"),
    names_from = measure_cd,
    values_from = prf_rate
  )
#> # A tibble: 95 × 8
#>   org_pac_id org_nm           CAHPS_GRP_1 CAHPS_GRP_2 CAHPS_GRP_3 CAHPS_GRP_5
#>   <chr>      <chr>                  <dbl>       <dbl>       <dbl>       <dbl>
#> 1 0446157747 USC CARE MEDICA...          63          87          86          57
#> 2 0446162697 ASSOCIATION OF ...          59          85          83          63
#> 3 0547164295 BEAVER MEDICAL ...          49          NA          75          44
#> 4 0749333730 CAPE PHYSICIANS...          67          84          85          65
#> 5 0840104360 ALLIANCE PHYSIC...          66          87          87          64
#> 6 0840109864 REX HOSPITAL INC          73          87          84          67
#> # ℹ 89 more rows
#> # ℹ 2 more variables: CAHPS_GRP_8 <dbl>, CAHPS_GRP_12 <dbl>
```
…
```{r}
#Relational Data
airlines
#> # A tibble: 16 × 2
#>   carrier name                    
#>   <chr>   <chr>                   
#> 1 9E      Endeavor Air Inc.       
#> 2 AA      American Airlines Inc.  
#> 3 AS      Alaska Airlines Inc.    
#> 4 B6      JetBlue Airways         
#> 5 DL      Delta Air Lines Inc.    
#> 6 EV      ExpressJet Airlines Inc.
#> # ... with 10 more rows
airports
#> # A tibble: 1,458 × 8
#>   faa   name                             lat   lon   alt    tz dst   tzone      
#>   <chr> <chr>                          <dbl> <dbl> <dbl> <dbl> <chr> <chr>      
#> 1 04G   Lansdowne Airport               41.1 -80.6  1044    -5 A     America/Ne...
#> 2 06A   Moton Field Municipal Airport   32.5 -85.7   264    -6 A     America/Ch...
#> 3 06C   Schaumburg Regional             42.0 -88.1   801    -6 A     America/Ch...
#> 4 06N   Randall Airport                 41.4 -75.4   523    -5 A     America/Ne...
#> 5 09J   Jekyll Island Airport           31.1 -81.4    11    -5 A     America/Ne...
#> 6 0A9   Elizabethton Municipal Airport  36.4 -82.2  1593    -5 A     America/Ne...
#> # ... with 1,452 more rows
planes
#> # A tibble: 3,322 × 9
#>   tailnum  year type                    manuf...¹ model engines seats speed engine
#>   <chr>   <int> <chr>                   <chr>   <chr>   <int> <int> <int> <chr> 
#> 1 N10156   2004 Fixed wing multi engine EMBRAER EMB-...       2    55    NA Turbo...
#> 2 N102UW   1998 Fixed wing multi engine AIRBUS... A320...       2   182    NA Turbo...
#> 3 N103US   1999 Fixed wing multi engine AIRBUS... A320...       2   182    NA Turbo...
#> 4 N104UW   1999 Fixed wing multi engine AIRBUS... A320...       2   182    NA Turbo...
#> 5 N10575   2002 Fixed wing multi engine EMBRAER EMB-...       2    55    NA Turbo...
#> 6 N105UW   1999 Fixed wing multi engine AIRBUS... A320...       2   182    NA Turbo...
#> # ... with 3,316 more rows, and abbreviated variable name ¹​manufacturer
weather
#> # A tibble: 26,115 × 15
#>   origin  year month   day  hour  temp  dewp humid wind_dir wind_speed wind_gust
#>   <chr>  <int> <int> <int> <int> <dbl> <dbl> <dbl>    <dbl>      <dbl>     <dbl>
#> 1 EWR     2013     1     1     1  39.0  26.1  59.4      270      10.4         NA
#> 2 EWR     2013     1     1     2  39.0  27.0  61.6      250       8.06        NA
#> 3 EWR     2013     1     1     3  39.0  28.0  65.4      240      11.5         NA
#> 4 EWR     2013     1     1     4  39.9  28.0  62.2      250      12.7         NA
#> 5 EWR     2013     1     1     5  39.0  28.0  65.4      260      12.7         NA
#> 6 EWR     2013     1     1     6  37.9  28.0  67.2      240      11.5         NA
#> # ... with 26,109 more rows, and 4 more variables: precip <dbl>, pressure <dbl>,
#> #   visib <dbl>, time_hour <dttm>
```
…
weather %>% 
  count(year, month, day, hour, origin) %>% 
  filter(n > 1)
#> # A tibble: 3 × 6
#>    year month   day  hour origin     n
#>   <int> <int> <int> <int> <chr>  <int>
#> 1  2013    11     3     1 EWR        2
#> 2  2013    11     3     1 JFK        2
#> 3  2013    11     3     1 LGA        2
flights %>% 
  count(year, month, day, flight) %>% 
  filter(n > 1)
#> # A tibble: 29,768 × 5
#>    year month   day flight     n
#>   <int> <int> <int>  <int> <int>
#> 1  2013     1     1      1     2
#> 2  2013     1     1      3     2
#> 3  2013     1     1      4     2
#> 4  2013     1     1     11     3
#> 5  2013     1     1     15     2
#> 6  2013     1     1     21     2
#> # ... with 29,762 more rows
flights %>% 
  count(year, month, day, tailnum) %>% 
  filter(n > 1)
#> # A tibble: 64,928 × 5
#>    year month   day tailnum     n
#>   <int> <int> <int> <chr>   <int>
#> 1  2013     1     1 N0EGMQ      2
#> 2  2013     1     1 N11189      2
#> 3  2013     1     1 N11536      2
#> 4  2013     1     1 N11544      3
#> 5  2013     1     1 N11551      2
#> 6  2013     1     1 N12540      2
#> # ... with 64,922 more rows
```

```{r}
#Mutating Joins
flights2 <- flights %>% 
  select(year:day, hour, origin, dest, tailnum, carrier)
#> # A tibble: 336,776 × 8
#>    year month   day  hour origin dest  tailnum carrier
#>   <int> <int> <int> <dbl> <chr>  <chr> <chr>   <chr>  
#> 1  2013     1     1     5 EWR    IAH   N14228  UA     
#> 2  2013     1     1     5 LGA    IAH   N24211  UA     
#> 3  2013     1     1     5 JFK    MIA   N619AA  AA     
#> 4  2013     1     1     5 JFK    BQN   N804JB  B6     
#> 5  2013     1     1     6 LGA    ATL   N668DN  DL     
#> 6  2013     1     1     5 EWR    ORD   N39463  UA     
#> # ... with 336,770 more rows
flights2 %>%
  select(-origin, -dest) %>% 
  left_join(airlines, by = "carrier")
#> # A tibble: 336,776 × 7
#>    year month   day  hour tailnum carrier name                  
#>   <int> <int> <int> <dbl> <chr>   <chr>   <chr>                 
#> 1  2013     1     1     5 N14228  UA      United Air Lines Inc. 
#> 2  2013     1     1     5 N24211  UA      United Air Lines Inc. 
#> 3  2013     1     1     5 N619AA  AA      American Airlines Inc.
#> 4  2013     1     1     5 N804JB  B6      JetBlue Airways       
#> 5  2013     1     1     6 N668DN  DL      Delta Air Lines Inc.  
#> 6  2013     1     1     5 N39463  UA      United Air Lines Inc. 
#> # ... with 336,770 more rows
flights2 %>%
  select(-origin, -dest) %>% 
  mutate(name = airlines$name[match(carrier, airlines$carrier)])
#> # A tibble: 336,776 × 7
#>    year month   day  hour tailnum carrier name                  
#>   <int> <int> <int> <dbl> <chr>   <chr>   <chr>                 
#> 1  2013     1     1     5 N14228  UA      United Air Lines Inc. 
#> 2  2013     1     1     5 N24211  UA      United Air Lines Inc. 
#> 3  2013     1     1     5 N619AA  AA      American Airlines Inc.
#> 4  2013     1     1     5 N804JB  B6      JetBlue Airways       
#> 5  2013     1     1     6 N668DN  DL      Delta Air Lines Inc.  
#> 6  2013     1     1     5 N39463  UA      United Air Lines Inc. 
#> # ... with 336,770 more rows
…
)
left_join(x, y, by = "key")
#> # A tibble: 6 × 3
#>     key val_x val_y
#>   <dbl> <chr> <chr>
#> 1     1 x1    y1   
#> 2     2 x2    y2   
#> 3     2 x2    y3   
#> 4     2 x3    y2   
#> 5     2 x3    y3   
#> 6     3 x4    y4
flights2 %>% 
  left_join(weather)
#> Joining, by = c("year", "month", "day", "hour", "origin")
#> # A tibble: 336,776 × 18
#>    year month   day  hour origin dest  tailnum carrier  temp  dewp humid wind_...¹
#>   <int> <int> <int> <dbl> <chr>  <chr> <chr>   <chr>   <dbl> <dbl> <dbl>   <dbl>
#> 1  2013     1     1     5 EWR    IAH   N14228  UA       39.0  28.0  64.4     260
#> 2  2013     1     1     5 LGA    IAH   N24211  UA       39.9  25.0  54.8     250
#> 3  2013     1     1     5 JFK    MIA   N619AA  AA       39.0  27.0  61.6     260
#> 4  2013     1     1     5 JFK    BQN   N804JB  B6       39.0  27.0  61.6     260
#> 5  2013     1     1     6 LGA    ATL   N668DN  DL       39.9  25.0  54.8     260
#> 6  2013     1     1     5 EWR    ORD   N39463  UA       39.0  28.0  64.4     260
#> # ... with 336,770 more rows, 6 more variables: wind_speed <dbl>,
#> #   wind_gust <dbl>, precip <dbl>, pressure <dbl>, visib <dbl>,
#> #   time_hour <dttm>, and abbreviated variable name ¹​wind_dir
flights2 %>% 
  left_join(planes, by = "tailnum")
#> # A tibble: 336,776 × 16
#>   year.x month   day  hour origin dest  tailnum carrier year.y type      manuf...¹
#>    <int> <int> <int> <dbl> <chr>  <chr> <chr>   <chr>    <int> <chr>     <chr>  
#> 1   2013     1     1     5 EWR    IAH   N14228  UA        1999 Fixed wi... BOEING 
#> 2   2013     1     1     5 LGA    IAH   N24211  UA        1998 Fixed wi... BOEING 
#> 3   2013     1     1     5 JFK    MIA   N619AA  AA        1990 Fixed wi... BOEING 
#> 4   2013     1     1     5 JFK    BQN   N804JB  B6        2012 Fixed wi... AIRBUS 
#> 5   2013     1     1     6 LGA    ATL   N668DN  DL        1991 Fixed wi... BOEING 
#> 6   2013     1     1     5 EWR    ORD   N39463  UA        2012 Fixed wi... BOEING 
#> # ... with 336,770 more rows, 5 more variables: model <chr>, engines <int>,
#> #   seats <int>, speed <int>, engine <chr>, and abbreviated variable name
#> #   ¹​manufacturer
flights2 %>% 
  left_join(airports, c("dest" = "faa"))
#> # A tibble: 336,776 × 15
#>    year month   day  hour origin dest  tailnum carrier name      lat   lon   alt
#>   <int> <int> <int> <dbl> <chr>  <chr> <chr>   <chr>   <chr>   <dbl> <dbl> <dbl>
#> 1  2013     1     1     5 EWR    IAH   N14228  UA      George...  30.0 -95.3    97
#> 2  2013     1     1     5 LGA    IAH   N24211  UA      George...  30.0 -95.3    97
#> 3  2013     1     1     5 JFK    MIA   N619AA  AA      Miami ...  25.8 -80.3     8
#> 4  2013     1     1     5 JFK    BQN   N804JB  B6      <NA>     NA    NA      NA
#> 5  2013     1     1     6 LGA    ATL   N668DN  DL      Hartsf...  33.6 -84.4  1026
#> 6  2013     1     1     5 EWR    ORD   N39463  UA      Chicag...  42.0 -87.9   668
#> # ... with 336,770 more rows, and 3 more variables: tz <dbl>, dst <chr>,
#> #   tzone <chr>
flights2 %>% 
  left_join(airports, c("origin" = "faa"))
#> # A tibble: 336,776 × 15
#>    year month   day  hour origin dest  tailnum carrier name      lat   lon   alt
#>   <int> <int> <int> <dbl> <chr>  <chr> <chr>   <chr>   <chr>   <dbl> <dbl> <dbl>
#> 1  2013     1     1     5 EWR    IAH   N14228  UA      Newark...  40.7 -74.2    18
#> 2  2013     1     1     5 LGA    IAH   N24211  UA      La Gua...  40.8 -73.9    22
#> 3  2013     1     1     5 JFK    MIA   N619AA  AA      John F...  40.6 -73.8    13
#> 4  2013     1     1     5 JFK    BQN   N804JB  B6      John F...  40.6 -73.8    13
#> 5  2013     1     1     6 LGA    ATL   N668DN  DL      La Gua...  40.8 -73.9    22
#> 6  2013     1     1     5 EWR    ORD   N39463  UA      Newark...  40.7 -74.2    18
#> # ... with 336,770 more rows, and 3 more variables: tz <dbl>, dst <chr>,
#> #   tzone <chr>
```
…
